module gitlab.com/tanna.dev/hacking/scorecards-gitlab

go 1.22.0

require github.com/sigstore/cosign/v2 v2.2.3

require (
	cloud.google.com/go/compute v1.23.3 // indirect
	cloud.google.com/go/compute/metadata v0.2.3 // indirect
	filippo.io/edwards25519 v1.1.0 // indirect
	github.com/AliyunContainerService/ack-ram-tool/pkg/credentials/alibabacloudsdkgo/helper v0.2.0 // indirect
	github.com/Azure/azure-sdk-for-go v68.0.0+incompatible // indirect
	github.com/Azure/go-autorest v14.2.0+incompatible // indirect
	github.com/Azure/go-autorest/autorest v0.11.29 // indirect
	github.com/Azure/go-autorest/autorest/adal v0.9.23 // indirect
	github.com/Azure/go-autorest/autorest/azure/auth v0.5.12 // indirect
	github.com/Azure/go-autorest/autorest/azure/cli v0.4.6 // indirect
	github.com/Azure/go-autorest/autorest/date v0.3.0 // indirect
	github.com/Azure/go-autorest/logger v0.2.1 // indirect
	github.com/Azure/go-autorest/tracing v0.6.0 // indirect
	github.com/Microsoft/go-winio v0.6.1 // indirect
	github.com/ProtonMail/go-crypto v0.0.0-20230923063757-afb1ddc0824c // indirect
	github.com/ThalesIgnite/crypto11 v1.2.5 // indirect
	github.com/alibabacloud-go/alibabacloud-gateway-spi v0.0.4 // indirect
	github.com/alibabacloud-go/cr-20160607 v1.0.1 // indirect
	github.com/alibabacloud-go/cr-20181201 v1.0.10 // indirect
	github.com/alibabacloud-go/darabonba-openapi v0.2.1 // indirect
	github.com/alibabacloud-go/debug v1.0.0 // indirect
	github.com/alibabacloud-go/endpoint-util v1.1.1 // indirect
	github.com/alibabacloud-go/openapi-util v0.1.0 // indirect
	github.com/alibabacloud-go/tea v1.2.1 // indirect
	github.com/alibabacloud-go/tea-utils v1.4.5 // indirect
	github.com/alibabacloud-go/tea-xml v1.1.3 // indirect
	github.com/aliyun/credentials-go v1.3.1 // indirect
	github.com/asaskevich/govalidator v0.0.0-20230301143203-a9d515a09cc2 // indirect
	github.com/aws/aws-sdk-go-v2 v1.24.1 // indirect
	github.com/aws/aws-sdk-go-v2/config v1.26.6 // indirect
	github.com/aws/aws-sdk-go-v2/credentials v1.16.16 // indirect
	github.com/aws/aws-sdk-go-v2/feature/ec2/imds v1.14.11 // indirect
	github.com/aws/aws-sdk-go-v2/internal/configsources v1.2.10 // indirect
	github.com/aws/aws-sdk-go-v2/internal/endpoints/v2 v2.5.10 // indirect
	github.com/aws/aws-sdk-go-v2/internal/ini v1.7.3 // indirect
	github.com/aws/aws-sdk-go-v2/service/ecr v1.20.2 // indirect
	github.com/aws/aws-sdk-go-v2/service/ecrpublic v1.18.2 // indirect
	github.com/aws/aws-sdk-go-v2/service/internal/accept-encoding v1.10.4 // indirect
	github.com/aws/aws-sdk-go-v2/service/internal/presigned-url v1.10.10 // indirect
	github.com/aws/aws-sdk-go-v2/service/sso v1.18.7 // indirect
	github.com/aws/aws-sdk-go-v2/service/ssooidc v1.21.7 // indirect
	github.com/aws/aws-sdk-go-v2/service/sts v1.26.7 // indirect
	github.com/aws/smithy-go v1.19.0 // indirect
	github.com/awslabs/amazon-ecr-credential-helper/ecr-login v0.0.0-20231024185945-8841054dbdb8 // indirect
	github.com/blang/semver v3.5.1+incompatible // indirect
	github.com/buildkite/agent/v3 v3.62.0 // indirect
	github.com/buildkite/go-pipeline v0.3.2 // indirect
	github.com/buildkite/interpolate v0.0.0-20200526001904-07f35b4ae251 // indirect
	github.com/chrismellard/docker-credential-acr-env v0.0.0-20230304212654-82a0ddb27589 // indirect
	github.com/clbanning/mxj/v2 v2.7.0 // indirect
	github.com/cloudflare/circl v1.3.7 // indirect
	github.com/common-nighthawk/go-figure v0.0.0-20210622060536-734e95fb86be // indirect
	github.com/containerd/stargz-snapshotter/estargz v0.14.3 // indirect
	github.com/coreos/go-oidc/v3 v3.9.0 // indirect
	github.com/cyberphone/json-canonicalization v0.0.0-20231011164504-785e29786b46 // indirect
	github.com/davecgh/go-spew v1.1.2-0.20180830191138-d8f796af33cc // indirect
	github.com/digitorus/pkcs7 v0.0.0-20230818184609-3a137a874352 // indirect
	github.com/digitorus/timestamp v0.0.0-20231217203849-220c5c2851b7 // indirect
	github.com/dimchansky/utfbom v1.1.1 // indirect
	github.com/docker/cli v24.0.7+incompatible // indirect
	github.com/docker/distribution v2.8.3+incompatible // indirect
	github.com/docker/docker v24.0.7+incompatible // indirect
	github.com/docker/docker-credential-helpers v0.8.0 // indirect
	github.com/emicklei/go-restful/v3 v3.11.0 // indirect
	github.com/felixge/httpsnoop v1.0.4 // indirect
	github.com/fsnotify/fsnotify v1.7.0 // indirect
	github.com/go-chi/chi v4.1.2+incompatible // indirect
	github.com/go-jose/go-jose/v3 v3.0.1 // indirect
	github.com/go-logr/logr v1.4.1 // indirect
	github.com/go-logr/stdr v1.2.2 // indirect
	github.com/go-openapi/analysis v0.22.0 // indirect
	github.com/go-openapi/errors v0.21.0 // indirect
	github.com/go-openapi/jsonpointer v0.20.2 // indirect
	github.com/go-openapi/jsonreference v0.20.4 // indirect
	github.com/go-openapi/loads v0.21.5 // indirect
	github.com/go-openapi/runtime v0.27.1 // indirect
	github.com/go-openapi/spec v0.20.13 // indirect
	github.com/go-openapi/strfmt v0.22.0 // indirect
	github.com/go-openapi/swag v0.22.9 // indirect
	github.com/go-openapi/validate v0.22.4 // indirect
	github.com/go-piv/piv-go v1.11.0 // indirect
	github.com/gogo/protobuf v1.3.2 // indirect
	github.com/golang-jwt/jwt/v4 v4.5.0 // indirect
	github.com/golang/groupcache v0.0.0-20210331224755-41bb18bfe9da // indirect
	github.com/golang/protobuf v1.5.3 // indirect
	github.com/golang/snappy v0.0.4 // indirect
	github.com/google/certificate-transparency-go v1.1.7 // indirect
	github.com/google/gnostic-models v0.6.9-0.20230804172637-c7be7c783f49 // indirect
	github.com/google/go-cmp v0.6.0 // indirect
	github.com/google/go-containerregistry v0.18.0 // indirect
	github.com/google/go-github/v55 v55.0.0 // indirect
	github.com/google/go-querystring v1.1.0 // indirect
	github.com/google/gofuzz v1.2.0 // indirect
	github.com/google/s2a-go v0.1.7 // indirect
	github.com/google/uuid v1.6.0 // indirect
	github.com/googleapis/enterprise-certificate-proxy v0.3.2 // indirect
	github.com/hashicorp/go-cleanhttp v0.5.2 // indirect
	github.com/hashicorp/go-retryablehttp v0.7.5 // indirect
	github.com/hashicorp/hcl v1.0.1-vault-5 // indirect
	github.com/imdario/mergo v0.3.16 // indirect
	github.com/in-toto/in-toto-golang v0.9.0 // indirect
	github.com/inconshreveable/mousetrap v1.1.0 // indirect
	github.com/jedisct1/go-minisign v0.0.0-20230811132847-661be99b8267 // indirect
	github.com/jmespath/go-jmespath v0.4.0 // indirect
	github.com/josharian/intern v1.0.0 // indirect
	github.com/json-iterator/go v1.1.12 // indirect
	github.com/klauspost/compress v1.17.2 // indirect
	github.com/letsencrypt/boulder v0.0.0-20231026200631-000cd05d5491 // indirect
	github.com/magiconair/properties v1.8.7 // indirect
	github.com/mailru/easyjson v0.7.7 // indirect
	github.com/miekg/pkcs11 v1.1.1 // indirect
	github.com/mitchellh/go-homedir v1.1.0 // indirect
	github.com/mitchellh/mapstructure v1.5.0 // indirect
	github.com/modern-go/concurrent v0.0.0-20180306012644-bacd9c7ef1dd // indirect
	github.com/modern-go/reflect2 v1.0.2 // indirect
	github.com/mozillazg/docker-credential-acr-helper v0.3.0 // indirect
	github.com/munnerz/goautoneg v0.0.0-20191010083416-a7dc8b61c822 // indirect
	github.com/nozzle/throttler v0.0.0-20180817012639-2ea982251481 // indirect
	github.com/oklog/ulid v1.3.1 // indirect
	github.com/oleiade/reflections v1.0.1 // indirect
	github.com/opencontainers/go-digest v1.0.0 // indirect
	github.com/opencontainers/image-spec v1.1.0-rc5 // indirect
	github.com/opentracing/opentracing-go v1.2.0 // indirect
	github.com/pborman/uuid v1.2.1 // indirect
	github.com/pelletier/go-toml/v2 v2.1.0 // indirect
	github.com/pkg/errors v0.9.1 // indirect
	github.com/sagikazarmark/locafero v0.4.0 // indirect
	github.com/sagikazarmark/slog-shim v0.1.0 // indirect
	github.com/sassoftware/relic v7.2.1+incompatible // indirect
	github.com/secure-systems-lab/go-securesystemslib v0.8.0 // indirect
	github.com/segmentio/ksuid v1.0.4 // indirect
	github.com/shibumi/go-pathspec v1.3.0 // indirect
	github.com/sigstore/fulcio v1.4.3 // indirect
	github.com/sigstore/rekor v1.3.4 // indirect
	github.com/sigstore/sigstore v1.8.1 // indirect
	github.com/sigstore/timestamp-authority v1.2.1 // indirect
	github.com/sirupsen/logrus v1.9.3 // indirect
	github.com/skratchdot/open-golang v0.0.0-20200116055534-eef842397966 // indirect
	github.com/sourcegraph/conc v0.3.0 // indirect
	github.com/spf13/afero v1.11.0 // indirect
	github.com/spf13/cast v1.6.0 // indirect
	github.com/spf13/cobra v1.8.0 // indirect
	github.com/spf13/pflag v1.0.5 // indirect
	github.com/spf13/viper v1.18.2 // indirect
	github.com/spiffe/go-spiffe/v2 v2.1.7 // indirect
	github.com/subosito/gotenv v1.6.0 // indirect
	github.com/syndtr/goleveldb v1.0.1-0.20220721030215-126854af5e6d // indirect
	github.com/thales-e-security/pool v0.0.2 // indirect
	github.com/theupdateframework/go-tuf v0.7.0 // indirect
	github.com/titanous/rocacheck v0.0.0-20171023193734-afe73141d399 // indirect
	github.com/tjfoc/gmsm v1.4.1 // indirect
	github.com/transparency-dev/merkle v0.0.2 // indirect
	github.com/vbatts/tar-split v0.11.5 // indirect
	github.com/xanzy/go-gitlab v0.96.0 // indirect
	github.com/zeebo/errs v1.3.0 // indirect
	go.mongodb.org/mongo-driver v1.13.1 // indirect
	go.opencensus.io v0.24.0 // indirect
	go.opentelemetry.io/contrib/instrumentation/net/http/otelhttp v0.47.0 // indirect
	go.opentelemetry.io/otel v1.22.0 // indirect
	go.opentelemetry.io/otel/metric v1.22.0 // indirect
	go.opentelemetry.io/otel/trace v1.22.0 // indirect
	go.step.sm/crypto v0.42.1 // indirect
	go.uber.org/multierr v1.11.0 // indirect
	go.uber.org/zap v1.26.0 // indirect
	golang.org/x/crypto v0.18.0 // indirect
	golang.org/x/exp v0.0.0-20231108232855-2478ac86f678 // indirect
	golang.org/x/mod v0.14.0 // indirect
	golang.org/x/net v0.20.0 // indirect
	golang.org/x/oauth2 v0.16.0 // indirect
	golang.org/x/sync v0.6.0 // indirect
	golang.org/x/sys v0.16.0 // indirect
	golang.org/x/term v0.16.0 // indirect
	golang.org/x/text v0.14.0 // indirect
	golang.org/x/time v0.5.0 // indirect
	golang.org/x/tools v0.15.0 // indirect
	google.golang.org/api v0.159.0 // indirect
	google.golang.org/appengine v1.6.8 // indirect
	google.golang.org/genproto/googleapis/rpc v0.0.0-20240116215550-a9fa1716bcac // indirect
	google.golang.org/grpc v1.61.0 // indirect
	google.golang.org/protobuf v1.32.0 // indirect
	gopkg.in/go-jose/go-jose.v2 v2.6.1 // indirect
	gopkg.in/inf.v0 v0.9.1 // indirect
	gopkg.in/ini.v1 v1.67.0 // indirect
	gopkg.in/yaml.v2 v2.4.0 // indirect
	gopkg.in/yaml.v3 v3.0.1 // indirect
	k8s.io/api v0.28.3 // indirect
	k8s.io/apimachinery v0.28.3 // indirect
	k8s.io/client-go v0.28.3 // indirect
	k8s.io/klog/v2 v2.100.1 // indirect
	k8s.io/kube-openapi v0.0.0-20231010175941-2dd684a91f00 // indirect
	k8s.io/utils v0.0.0-20230726121419-3b25d923346b // indirect
	sigs.k8s.io/json v0.0.0-20221116044647-bc3834ca7abd // indirect
	sigs.k8s.io/release-utils v0.7.7 // indirect
	sigs.k8s.io/structured-merge-diff/v4 v4.3.0 // indirect
	sigs.k8s.io/yaml v1.4.0 // indirect
)
